Sorting a random array of size 24000K, num_threads=1
Elapsed=1.01e+01
Sorting a random array of size 24000K, num_threads=2
Elapsed=1.01e+01
Sorting a random array of size 24000K, num_threads=4
Elapsed=1.01e+01
Sorting a random array of size 24000K, num_threads=8
Elapsed=1.02e+01
Sorting a random array of size 24000K, num_threads=16
Elapsed=1.06e+01
Sorting a random array of size 24000K, num_threads=32
Elapsed=1.15e+01
Sorting a random array of size 240000K, num_threads=1
Elapsed=1.14e+02
Sorting a random array of size 240000K, num_threads=2
Elapsed=1.16e+02
Sorting a random array of size 240000K, num_threads=4
Elapsed=1.17e+02
Sorting a random array of size 240000K, num_threads=8
Elapsed=1.17e+02
Sorting a random array of size 240000K, num_threads=16
Elapsed=1.17e+02
Sorting a random array of size 240000K, num_threads=32
Elapsed=1.26e+02
